<?xml version="1.1" encoding="UTF-8"?>
<testsuite name="HelloSpock" tests="1" failures="0" errors="0" timestamp="2014-01-18T21:25:41" hostname="aurora" time="0.012">
  <properties/>
  <testcase name="length of Spock's and his friends' names" classname="HelloSpock" time="0.012"/>
  <system-out><![CDATA[]]></system-out>
  <system-err><![CDATA[]]></system-err>
</testsuite>
