D, [2014-02-15T19:17:47.717832 #55366] DEBUG -- :   [1m[36m (0.6ms)[0m  [1mSELECT COUNT(*) FROM `averia`[0m
D, [2014-02-15T19:17:47.720077 #55366] DEBUG -- :   [1m[35mAveria Load (0.3ms)[0m  SELECT `averia`.* FROM `averia` WHERE `averia`.`id` = 44 LIMIT 1
D, [2014-02-15T19:27:15.274692 #55519] DEBUG -- :   [1m[36m (213.5ms)[0m  [1mCREATE TABLE `schema_migrations` (`version` varchar(255) NOT NULL) ENGINE=InnoDB[0m
D, [2014-02-15T19:27:15.585112 #55519] DEBUG -- :   [1m[35m (308.9ms)[0m  CREATE UNIQUE INDEX `unique_schema_migrations` ON `schema_migrations` (`version`) 
D, [2014-02-15T19:27:15.586342 #55519] DEBUG -- :   [1m[36mActiveRecord::SchemaMigration Load (0.4ms)[0m  [1mSELECT `schema_migrations`.* FROM `schema_migrations`[0m
I, [2014-02-15T19:27:15.587457 #55519]  INFO -- : Migrating to CreateUsers (1)
D, [2014-02-15T19:27:15.753504 #55519] DEBUG -- :   [1m[35m (130.1ms)[0m  CREATE TABLE `users` (`id` int(11) DEFAULT NULL auto_increment PRIMARY KEY, `name` varchar(255) NOT NULL) ENGINE=InnoDB
D, [2014-02-15T19:27:15.766269 #55519] DEBUG -- :   [1m[36m (0.8ms)[0m  [1mBEGIN[0m
D, [2014-02-15T19:27:15.828435 #55519] DEBUG -- :   [1m[35mSQL (35.2ms)[0m  INSERT INTO `schema_migrations` (`version`) VALUES ('1')
D, [2014-02-15T19:27:15.829196 #55519] DEBUG -- :   [1m[36m (0.4ms)[0m  [1mCOMMIT[0m
D, [2014-02-15T19:29:29.037273 #55537] DEBUG -- :   [1m[36mActiveRecord::SchemaMigration Load (0.2ms)[0m  [1mSELECT `schema_migrations`.* FROM `schema_migrations`[0m
I, [2014-02-15T19:29:29.041884 #55537]  INFO -- : Migrating to CreateRoles (2)
D, [2014-02-15T19:29:29.108998 #55537] DEBUG -- :   [1m[35m (63.1ms)[0m  CREATE TABLE `roles` (`id` int(11) DEFAULT NULL auto_increment PRIMARY KEY, `name` varchar(255) NOT NULL) ENGINE=InnoDB
D, [2014-02-15T19:29:29.109866 #55537] DEBUG -- :   [1m[36m (0.2ms)[0m  [1mBEGIN[0m
D, [2014-02-15T19:29:29.114155 #55537] DEBUG -- :   [1m[35mSQL (0.3ms)[0m  INSERT INTO `schema_migrations` (`version`) VALUES ('2')
D, [2014-02-15T19:29:29.115486 #55537] DEBUG -- :   [1m[36m (1.1ms)[0m  [1mCOMMIT[0m
